Dashboard
…
  pivot_longer(
    cols = -c(metric_name, target_raw),
    names_to = "date",  
    values_to = "value_raw" 
  ) %>%
  mutate(
    value_raw = str_replace(value_raw, ",", "."),
    target_num = parse_number(target_raw),
    value_num = parse_number(value_raw)
  ) %>% 
  select(-target_raw) %>%
  print() %>% 
  view()

# A tibble: 34 × 5
   metric_name          date   value_raw target_num value_num
   <chr>                <chr>  <chr>          <dbl>     <dbl>
 1 Availability Average 12-Jan 52.06%            40      52.1
 2 Availability Average 26-Jan 55.23%            40      55.2
 3 Availability Lowest  12-Jan 38%               35      38  
 4 Availability Lowest  26-Jan 41.00%            35      41  
 5 Utilization          12-Jan 38.93%            45      38.9
 6 Utilization          26-Jan 35.28%            45      35.3
 7 %Completion          12-Jan 135.00%          100     135  
 8 %Completion          26-Jan 125.00%          100     125  
 9 %Force busy usage    12-Jan 11.00%            15      11  
10 %Force busy usage    26-Jan 11.28%            15      11.3
# ℹ 24 more rows
…
